…
## 2. How many babies are there in each year?


```r
babynames %>% 
  group_by(year) %>% 
  summarise(total= sum(n))
```

```
## # A tibble: 138 × 2
##     year  total
##    <dbl>  <int>
##  1  1880 201484
##  2  1881 192696
##  3  1882 221533
##  4  1883 216946
##  5  1884 243462
##  6  1885 240854
##  7  1886 255317
##  8  1887 247394
##  9  1888 299473
## 10  1889 288946
## # ℹ 128 more rows
```
Can you plot the total number of names (and hence births) by year?

## 3. How many distinct names in each year?


```r
babynames %>%
  group_by(year) %>%
  summarise(name_count = n_distinct(name))
```

```
## # A tibble: 138 × 2
##     year name_count
##    <dbl>      <int>
##  1  1880       1889
##  2  1881       1830
##  3  1882       2012
##  4  1883       1962
##  5  1884       2158
##  6  1885       2139
##  7  1886       2225
##  8  1887       2215
##  9  1888       2454
## 10  1889       2390
## # ℹ 128 more rows
```
…
```r
babynames %>%
  group_by(year, sex) %>%
  summarise(name_count = n_distinct(name)) 
```

```
## `summarise()` has grouped output by 'year'. You can override using the
## `.groups` argument.
```

```
## # A tibble: 276 × 3
## # Groups:   year [138]
##     year sex   name_count
##    <dbl> <chr>      <int>
##  1  1880 F            942
##  2  1880 M           1058
##  3  1881 F            938
##  4  1881 M            997
##  5  1882 F           1028
##  6  1882 M           1099
##  7  1883 F           1054
##  8  1883 M           1030
##  9  1884 F           1172
## 10  1884 M           1125
## # ℹ 266 more rows
```
…
