…
## Categorical variables

Write a paragraph discussing the output of the following

``` r
bechdel %>% 
  group_by(genre, test) %>%
  summarise(n = n()) %>% 
  mutate(prop = n/sum(n))
```

```         
## # A tibble: 24 × 4
## # Groups:   genre [14]
##    genre     test      n  prop
##    <chr>     <fct> <int> <dbl>
##  1 Action    Fail    260 0.707
##  2 Action    Pass    108 0.293
##  3 Adventure Fail     52 0.559
##  4 Adventure Pass     41 0.441
##  5 Animation Fail     63 0.677
##  6 Animation Pass     30 0.323
##  7 Biography Fail     36 0.554
##  8 Biography Pass     29 0.446
##  9 Comedy    Fail    138 0.427
## 10 Comedy    Pass    185 0.573
## # ℹ 14 more rows
```
…
# What does the data for ROC look like?
tree_preds %>% 
  collect_predictions() %>% 
  roc_curve(truth = test, .pred_Fail)  
```

```         
## # A tibble: 29 × 3
##    .threshold specificity sensitivity
##         <dbl>       <dbl>       <dbl>
##  1   -Inf         0             1    
##  2      0.262     0             1    
##  3      0.317     0.00201       0.989
##  4      0.373     0.00805       0.982
##  5      0.440     0.0181        0.976
##  6      0.459     0.0443        0.943
##  7      0.460     0.0765        0.924
##  8      0.464     0.115         0.901
##  9      0.465     0.147         0.887
## 10      0.465     0.191         0.864
## # ℹ 19 more rows
```
…
``` r
# Show performance for every single fold:
log_res %>%  collect_metrics(summarize = FALSE)
```

```         
## # A tibble: 80 × 5
##    id     .metric   .estimator .estimate .config             
##    <chr>  <chr>     <chr>          <dbl> <chr>               
##  1 Fold01 recall    binary        0.403  Preprocessor1_Model1
##  2 Fold01 precision binary        0.581  Preprocessor1_Model1
##  3 Fold01 f_meas    binary        0.476  Preprocessor1_Model1
##  4 Fold01 accuracy  binary        0.509  Preprocessor1_Model1
##  5 Fold01 kap       binary        0.0417 Preprocessor1_Model1
##  6 Fold01 sens      binary        0.403  Preprocessor1_Model1
##  7 Fold01 spec      binary        0.64   Preprocessor1_Model1
##  8 Fold01 roc_auc   binary        0.508  Preprocessor1_Model1
##  9 Fold02 recall    binary        0.339  Preprocessor1_Model1
## 10 Fold02 precision binary        0.477  Preprocessor1_Model1
## # ℹ 70 more rows
```
…
